<svg xmlns="http://www.w3.org/2000/svg" width="24" height="24" viewBox="0 0 24 24">
    <g fill="none" fill-rule="evenodd">
        <g>
            <g>
                <g>
                    <g>
                        <g>
                            <path d="M0 0L24 0 24 24 0 24z" transform="translate(-222 -1068) translate(170 288) translate(0 744) translate(32 16) translate(20 20)"/>
                            <path fill="#FF694B" d="M19 1c2.21 0 4 1.79 4 4v14c0 2.21-1.79 4-4 4H5c-2.21 0-4-1.79-4-4V5c0-2.21 1.79-4 4-4h14zm0 1H5C3.402 2 2.096 3.249 2.005 4.824L2 5v1.731l3.994 2.661 6.715-4.799c.225-.16.537-.108.698.116.143.2.117.469-.048.639l-.068.059-6.996 5c-.144.103-.331.12-.49.051l-.078-.042L2 7.934v2.797l3.994 2.661 6.715-4.799c.225-.16.537-.108.698.116.143.2.117.469-.048.639l-.068.059-6.996 5c-.144.103-.331.12-.49.051l-.078-.042L2 11.934v2.797l3.994 2.661 6.715-4.799c.225-.16.537-.108.698.116.143.2.117.469-.048.639l-.068.059-6.996 5c-.144.103-.331.12-.49.051l-.078-.042L2 15.934V19c0 1.598 1.249 2.904 2.824 2.995L5 22h14c1.598 0 2.904-1.249 2.995-2.824L22 19V5c0-1.598-1.249-2.904-2.824-2.995L19 2z" transform="translate(-222 -1068) translate(170 288) translate(0 744) translate(32 16) translate(20 20)"/>
                        </g>
                    </g>
                </g>
            </g>
        </g>
    </g>
</svg>
