<svg xmlns="http://www.w3.org/2000/svg" width="16" height="16" viewBox="0 0 16 16">
    <g fill="none" fill-rule="evenodd">
        <g>
            <g>
                <g>
                    <path d="M0 0L16 0 16 16 0 16z" transform="translate(-993 -32) translate(985 24) translate(8 8)"/>
                    <path fill="#5069D7" d="M9.667 10c2.074 0 3.724 1.473 3.828 3.466l.005.2v.834c0 .276-.224.5-.5.5-.245 0-.45-.177-.492-.41l-.008-.09v-.833c0-1.469-1.138-2.582-2.656-2.662L9.667 11H6.333c-1.547 0-2.742 1.059-2.828 2.499l-.005.168v.833c0 .276-.224.5-.5.5-.245 0-.45-.177-.492-.41L2.5 14.5v-.833c0-2.026 1.583-3.565 3.627-3.662L6.333 10h3.334zM8 1.5c1.933 0 3.5 1.567 3.5 3.5S9.933 8.5 8 8.5 4.5 6.933 4.5 5 6.067 1.5 8 1.5zm0 1C6.62 2.5 5.5 3.62 5.5 5S6.62 7.5 8 7.5s2.5-1.12 2.5-2.5S9.38 2.5 8 2.5z" transform="translate(-993 -32) translate(985 24) translate(8 8)"/>
                </g>
            </g>
        </g>
    </g>
</svg>
